%YAML 1.1
%TAG !u! tag:unity3d.com,2011:
--- !u!1045 &1
EditorBuildSettings:
  m_ObjectHideFlags: 0
  serializedVersion: 2
  m_Scenes:
  - enabled: 1
    path: Assets/Scenes/Menu/LoginMenu.unity
  - enabled: 1
    path: Assets/Scenes/Menu/Lobby.unity
  - enabled: 1
    path: Assets/Scenes/Menu/CharacterSelect.unity
  - enabled: 1
    path: Assets/Scenes/Levels/SandBox.unity
  - enabled: 1
    path: Assets/Scenes/Levels/MainLevel02.unity
  - enabled: 1
    path: Assets/Scenes/Levels/MainLevel03.unity
  - enabled: 1
    path: Assets/Scenes/Levels/MainLevel04.unity
